battalion_28: 25.155096, 91.569646
battalion_41: 24.974963, 92.411077
battalion_48: 25.144742, 92.027552
sector_sylhet: 24.957354, 91.946667
region_sarail: 24.654948, 91.467476
dg_bgb: 24.654948, 91.467476